%YAML 1.1
%TAG !u! tag:unity3d.com,2011:
--- !u!114 &11400000
MonoBehaviour:
  m_ObjectHideFlags: 0
  m_CorrespondingSourceObject: {fileID: 0}
  m_PrefabInstance: {fileID: 0}
  m_PrefabAsset: {fileID: 0}
  m_GameObject: {fileID: 0}
  m_Enabled: 1
  m_EditorHideFlags: 0
  m_Script: {fileID: 11500000, guid: 5dcb532916a745542977ed72f366afab, type: 3}
  m_Name: CringePreFightDialog
  m_EditorClassIdentifier: 
  nodeLinkDatas:
  - baseNodeGuid: 1230b854-9067-4b67-8d9e-a80637a8ef90
    targetNodeGuid: 6bc5d577-8149-4ecc-8fc4-c9e3376be6ca
  - baseNodeGuid: 2bb15cc2-ffd4-4b53-9905-282f362fe8ce
    targetNodeGuid: c1331068-5def-4a04-9984-30047a67912c
  - baseNodeGuid: 6bc5d577-8149-4ecc-8fc4-c9e3376be6ca
    targetNodeGuid: 2bb15cc2-ffd4-4b53-9905-282f362fe8ce
  - baseNodeGuid: 489fd10f-05a1-4201-9c09-9da94c21d04a
    targetNodeGuid: 05c356b8-5f0d-404f-9737-77d50795f115
  - baseNodeGuid: ad8e9196-f34c-458a-8c31-5b82cac49679
    targetNodeGuid: 489fd10f-05a1-4201-9c09-9da94c21d04a
  - baseNodeGuid: c1331068-5def-4a04-9984-30047a67912c
    targetNodeGuid: ad8e9196-f34c-458a-8c31-5b82cac49679
  dialogNodeDatas:
  - nodeGuid: c1331068-5def-4a04-9984-30047a67912c
    position: {x: 1222, y: 248.66667}
    dialogNodePorts:
    - InputGuid: ad8e9196-f34c-458a-8c31-5b82cac49679
      OutputGuid: c1331068-5def-4a04-9984-30047a67912c
      nodePortText: ...
    Name: Protagonist
    Text: "No. You just reminded me of something extremely embarrassing. \nWhat do
      I do to make you go away?"
  - nodeGuid: 2bb15cc2-ffd4-4b53-9905-282f362fe8ce
    position: {x: 991.3333, y: 248.66667}
    dialogNodePorts:
    - InputGuid: c1331068-5def-4a04-9984-30047a67912c
      OutputGuid: 2bb15cc2-ffd4-4b53-9905-282f362fe8ce
      nodePortText: ...
    Name: Cringy Memory
    Text: 'What, are you scared?

'
  - nodeGuid: 6bc5d577-8149-4ecc-8fc4-c9e3376be6ca
    position: {x: 674.6667, y: 248.66667}
    dialogNodePorts:
    - InputGuid: 2bb15cc2-ffd4-4b53-9905-282f362fe8ce
      OutputGuid: 6bc5d577-8149-4ecc-8fc4-c9e3376be6ca
      nodePortText: ...
    Name: Protagonist
    Text: "\u2026"
  - nodeGuid: ad8e9196-f34c-458a-8c31-5b82cac49679
    position: {x: 1604, y: 248.66667}
    dialogNodePorts:
    - InputGuid: 489fd10f-05a1-4201-9c09-9da94c21d04a
      OutputGuid: ad8e9196-f34c-458a-8c31-5b82cac49679
      nodePortText: ...
    Name: Cringy Memory
    Text: Um. Fight me, I guess?
  - nodeGuid: 489fd10f-05a1-4201-9c09-9da94c21d04a
    position: {x: 1896, y: 250.00002}
    dialogNodePorts:
    - InputGuid: 05c356b8-5f0d-404f-9737-77d50795f115
      OutputGuid: 489fd10f-05a1-4201-9c09-9da94c21d04a
      nodePortText: ...
    Name: Protagonist
    Text: "Okay, sure. \nRight now. \nCome on.\r\n\r\n"
  endNodeDatas:
  - nodeGuid: 05c356b8-5f0d-404f-9737-77d50795f115
    position: {x: 2175.3333, y: 511.33334}
    endNodeType: 4
    payload: 
  startNodeDatas:
  - nodeGuid: 1230b854-9067-4b67-8d9e-a80637a8ef90
    position: {x: 359.33334, y: 248.66667}
