%YAML 1.1
%TAG !u! tag:unity3d.com,2011:
--- !u!114 &11400000
MonoBehaviour:
  m_ObjectHideFlags: 0
  m_CorrespondingSourceObject: {fileID: 0}
  m_PrefabInstance: {fileID: 0}
  m_PrefabAsset: {fileID: 0}
  m_GameObject: {fileID: 0}
  m_Enabled: 1
  m_EditorHideFlags: 0
  m_Script: {fileID: 11500000, guid: 5dcb532916a745542977ed72f366afab, type: 3}
  m_Name: WildmonNonStartCalmDialog
  m_EditorClassIdentifier: 
  nodeLinkDatas:
  - baseNodeGuid: f882d2c6-f98a-4057-b477-6323e27e5966
    targetNodeGuid: 338bdd14-d9f3-47f9-9e9c-88b42d70928f
  - baseNodeGuid: 338bdd14-d9f3-47f9-9e9c-88b42d70928f
    targetNodeGuid: 8d293eb0-8f0a-4f82-9b54-186ba0478611
  - baseNodeGuid: 8d293eb0-8f0a-4f82-9b54-186ba0478611
    targetNodeGuid: cf70db66-324f-491e-9a00-c83d9b0ea2f2
  - baseNodeGuid: 50c4a232-d423-4af2-a4f2-2d60b7a56c3b
    targetNodeGuid: b8e9bc03-dddb-45b6-aec3-704c946882d6
  - baseNodeGuid: cf70db66-324f-491e-9a00-c83d9b0ea2f2
    targetNodeGuid: 50c4a232-d423-4af2-a4f2-2d60b7a56c3b
  - baseNodeGuid: b8e9bc03-dddb-45b6-aec3-704c946882d6
    targetNodeGuid: 72577240-0c4c-4f3e-a516-c2f1eeabddfc
  - baseNodeGuid: 72577240-0c4c-4f3e-a516-c2f1eeabddfc
    targetNodeGuid: 55724ce4-880c-4aca-b611-acd417824eae
  dialogNodeDatas:
  - nodeGuid: 338bdd14-d9f3-47f9-9e9c-88b42d70928f
    position: {x: 328.66666, y: 374.66666}
    dialogNodePorts:
    - InputGuid: 8d293eb0-8f0a-4f82-9b54-186ba0478611
      OutputGuid: 338bdd14-d9f3-47f9-9e9c-88b42d70928f
      nodePortText: ...
    Name: Calm
    Text: Oh, hello, child.
  - nodeGuid: 8d293eb0-8f0a-4f82-9b54-186ba0478611
    position: {x: 533.3333, y: 376}
    dialogNodePorts:
    - InputGuid: cf70db66-324f-491e-9a00-c83d9b0ea2f2
      OutputGuid: 8d293eb0-8f0a-4f82-9b54-186ba0478611
      nodePortText: ...
    Name: Protagonist
    Text: "I wouldn\u2019t say I\u2019m a child - but hello. \nWhat are you up to?"
  - nodeGuid: 50c4a232-d423-4af2-a4f2-2d60b7a56c3b
    position: {x: 1034.6666, y: 374.66666}
    dialogNodePorts:
    - InputGuid: b8e9bc03-dddb-45b6-aec3-704c946882d6
      OutputGuid: 50c4a232-d423-4af2-a4f2-2d60b7a56c3b
      nodePortText: ...
    Name: Protagonist
    Text: "I\u2019m good. \nActually, I gotta fight - I mean find someone right now"
  - nodeGuid: cf70db66-324f-491e-9a00-c83d9b0ea2f2
    position: {x: 799.3333, y: 376}
    dialogNodePorts:
    - InputGuid: 50c4a232-d423-4af2-a4f2-2d60b7a56c3b
      OutputGuid: cf70db66-324f-491e-9a00-c83d9b0ea2f2
      nodePortText: ...
    Name: Calm
    Text: "Yoga. \nYou want to join in?"
  - nodeGuid: b8e9bc03-dddb-45b6-aec3-704c946882d6
    position: {x: 1388.6666, y: 374.66666}
    dialogNodePorts:
    - InputGuid: 72577240-0c4c-4f3e-a516-c2f1eeabddfc
      OutputGuid: b8e9bc03-dddb-45b6-aec3-704c946882d6
      nodePortText: ...
    Name: Calm
    Text: "You know what, I need some more exercise right now. \nIf you would have
      me?"
  - nodeGuid: 72577240-0c4c-4f3e-a516-c2f1eeabddfc
    position: {x: 1828.6666, y: 374.66666}
    dialogNodePorts:
    - InputGuid: 55724ce4-880c-4aca-b611-acd417824eae
      OutputGuid: 72577240-0c4c-4f3e-a516-c2f1eeabddfc
      nodePortText: ...
    Name: Protagonist
    Text: Sure!
  endNodeDatas:
  - nodeGuid: 55724ce4-880c-4aca-b611-acd417824eae
    position: {x: 2200, y: 374.66666}
    endNodeType: 7
    payload: Calm
  startNodeDatas:
  - nodeGuid: f882d2c6-f98a-4057-b477-6323e27e5966
    position: {x: 221.33333, y: 374.66666}
