%YAML 1.1
%TAG !u! tag:unity3d.com,2011:
--- !u!114 &11400000
MonoBehaviour:
  m_ObjectHideFlags: 0
  m_CorrespondingSourceObject: {fileID: 0}
  m_PrefabInstance: {fileID: 0}
  m_PrefabAsset: {fileID: 0}
  m_GameObject: {fileID: 0}
  m_Enabled: 1
  m_EditorHideFlags: 0
  m_Script: {fileID: 11500000, guid: 5dcb532916a745542977ed72f366afab, type: 3}
  m_Name: WildmonAngerDialog
  m_EditorClassIdentifier: 
  nodeLinkDatas:
  - baseNodeGuid: f882d2c6-f98a-4057-b477-6323e27e5966
    targetNodeGuid: 338bdd14-d9f3-47f9-9e9c-88b42d70928f
  - baseNodeGuid: 338bdd14-d9f3-47f9-9e9c-88b42d70928f
    targetNodeGuid: 8d293eb0-8f0a-4f82-9b54-186ba0478611
  - baseNodeGuid: 8d293eb0-8f0a-4f82-9b54-186ba0478611
    targetNodeGuid: cf70db66-324f-491e-9a00-c83d9b0ea2f2
  - baseNodeGuid: cf70db66-324f-491e-9a00-c83d9b0ea2f2
    targetNodeGuid: 50c4a232-d423-4af2-a4f2-2d60b7a56c3b
  - baseNodeGuid: 50c4a232-d423-4af2-a4f2-2d60b7a56c3b
    targetNodeGuid: b8e9bc03-dddb-45b6-aec3-704c946882d6
  - baseNodeGuid: b8e9bc03-dddb-45b6-aec3-704c946882d6
    targetNodeGuid: 72577240-0c4c-4f3e-a516-c2f1eeabddfc
  - baseNodeGuid: 72577240-0c4c-4f3e-a516-c2f1eeabddfc
    targetNodeGuid: 55724ce4-880c-4aca-b611-acd417824eae
  dialogNodeDatas:
  - nodeGuid: 338bdd14-d9f3-47f9-9e9c-88b42d70928f
    position: {x: 328.66666, y: 374.66666}
    dialogNodePorts:
    - InputGuid: 8d293eb0-8f0a-4f82-9b54-186ba0478611
      OutputGuid: 338bdd14-d9f3-47f9-9e9c-88b42d70928f
      nodePortText: ...
    Name: Anger
    Text: "You!!! \nThis is all your fault!\r"
  - nodeGuid: 8d293eb0-8f0a-4f82-9b54-186ba0478611
    position: {x: 533.3333, y: 376}
    dialogNodePorts:
    - InputGuid: cf70db66-324f-491e-9a00-c83d9b0ea2f2
      OutputGuid: 8d293eb0-8f0a-4f82-9b54-186ba0478611
      nodePortText: ...
    Name: Protagonist
    Text: "What are you talking about?\r"
  - nodeGuid: cf70db66-324f-491e-9a00-c83d9b0ea2f2
    position: {x: 730.6667, y: 376}
    dialogNodePorts:
    - InputGuid: 50c4a232-d423-4af2-a4f2-2d60b7a56c3b
      OutputGuid: cf70db66-324f-491e-9a00-c83d9b0ea2f2
      nodePortText: ...
    Name: Anger
    Text: "You know exactly what I\u2019m talking about! \nCome here, I\u2019ll show
      you the consequences of getting on my nerves!\r"
  - nodeGuid: b8e9bc03-dddb-45b6-aec3-704c946882d6
    position: {x: 1417.3334, y: 376}
    dialogNodePorts:
    - InputGuid: 72577240-0c4c-4f3e-a516-c2f1eeabddfc
      OutputGuid: b8e9bc03-dddb-45b6-aec3-704c946882d6
      nodePortText: ...
    Name: Anger
    Text: "CONSEQUENCES I said! \nRunning won\u2019t help you!\r"
  - nodeGuid: 50c4a232-d423-4af2-a4f2-2d60b7a56c3b
    position: {x: 1141.3334, y: 376}
    dialogNodePorts:
    - InputGuid: b8e9bc03-dddb-45b6-aec3-704c946882d6
      OutputGuid: 50c4a232-d423-4af2-a4f2-2d60b7a56c3b
      nodePortText: ...
    Name: Protagonist
    Text: "Oooor we could calm down? \nListen, I don\u2019t have time for this right
      now. \nIf you want, you can come along though?"
  - nodeGuid: 72577240-0c4c-4f3e-a516-c2f1eeabddfc
    position: {x: 1647.3334, y: 376}
    dialogNodePorts:
    - InputGuid: 55724ce4-880c-4aca-b611-acd417824eae
      OutputGuid: 72577240-0c4c-4f3e-a516-c2f1eeabddfc
      nodePortText: ...
    Name: Protagonist
    Text: "Come on now.\r"
  endNodeDatas:
  - nodeGuid: 55724ce4-880c-4aca-b611-acd417824eae
    position: {x: 1849.3334, y: 376}
    endNodeType: 7
    payload: Anger
  startNodeDatas:
  - nodeGuid: f882d2c6-f98a-4057-b477-6323e27e5966
    position: {x: 221.33333, y: 374.66666}
