%YAML 1.1
%TAG !u! tag:unity3d.com,2011:
--- !u!114 &11400000
MonoBehaviour:
  m_ObjectHideFlags: 0
  m_CorrespondingSourceObject: {fileID: 0}
  m_PrefabInstance: {fileID: 0}
  m_PrefabAsset: {fileID: 0}
  m_GameObject: {fileID: 0}
  m_Enabled: 1
  m_EditorHideFlags: 0
  m_Script: {fileID: 11500000, guid: 00340828243f66a46ae955f38361c089, type: 3}
  m_Name: HateYou
  m_EditorClassIdentifier: 
  AbilitieName: HatesYou
  Description: Does dmg to everything more to enemys
  Artwork: {fileID: 21300000, guid: 21d985f3c66a34c438f8aa9135f15295, type: 3}
  CastTime: 5
  Effects:
  - Target: 7
    InteractionType: 0
    Value: 10
  - Target: 56
    InteractionType: 0
    Value: 2
