%YAML 1.1
%TAG !u! tag:unity3d.com,2011:
--- !u!114 &11400000
MonoBehaviour:
  m_ObjectHideFlags: 0
  m_CorrespondingSourceObject: {fileID: 0}
  m_PrefabInstance: {fileID: 0}
  m_PrefabAsset: {fileID: 0}
  m_GameObject: {fileID: 0}
  m_Enabled: 1
  m_EditorHideFlags: 0
  m_Script: {fileID: 11500000, guid: 00340828243f66a46ae955f38361c089, type: 3}
  m_Name: Swipe
  m_EditorClassIdentifier: 
  AbilitieName: Swipe
  Description: A huge swipe targetting all enemies
  Artwork: {fileID: -1098612366, guid: 9bddfce05725b3d458b3e4515c91d95d, type: 3}
  CastTime: 4
  Effects:
  - Target: 7
    InteractionType: 0
    Value: 2
