%YAML 1.1
%TAG !u! tag:unity3d.com,2011:
--- !u!114 &11400000
MonoBehaviour:
  m_ObjectHideFlags: 0
  m_CorrespondingSourceObject: {fileID: 0}
  m_PrefabInstance: {fileID: 0}
  m_PrefabAsset: {fileID: 0}
  m_GameObject: {fileID: 0}
  m_Enabled: 1
  m_EditorHideFlags: 0
  m_Script: {fileID: 11500000, guid: 235b2751a91adde448fe02a5cd484527, type: 3}
  m_Name: Hate
  m_EditorClassIdentifier: 
  MonsterName: Hate
  Description: Hates you, and me and everything
  Artwork: {fileID: 21300000, guid: 21d985f3c66a34c438f8aa9135f15295, type: 3}
  ElementType: 2
  Health: 40
  Abilities:
  - {fileID: 11400000, guid: d2d12e10ef4ee464f805507df6d9b205, type: 2}
  - {fileID: 11400000, guid: d2d12e10ef4ee464f805507df6d9b205, type: 2}
  - {fileID: 11400000, guid: d2d12e10ef4ee464f805507df6d9b205, type: 2}
  - {fileID: 11400000, guid: d2d12e10ef4ee464f805507df6d9b205, type: 2}
  - {fileID: 11400000, guid: d2d12e10ef4ee464f805507df6d9b205, type: 2}
  - {fileID: 11400000, guid: d2d12e10ef4ee464f805507df6d9b205, type: 2}
  - {fileID: 11400000, guid: d2d12e10ef4ee464f805507df6d9b205, type: 2}
  - {fileID: 11400000, guid: d2d12e10ef4ee464f805507df6d9b205, type: 2}
