%YAML 1.1
%TAG !u! tag:unity3d.com,2011:
--- !u!114 &11400000
MonoBehaviour:
  m_ObjectHideFlags: 0
  m_CorrespondingSourceObject: {fileID: 0}
  m_PrefabInstance: {fileID: 0}
  m_PrefabAsset: {fileID: 0}
  m_GameObject: {fileID: 0}
  m_Enabled: 1
  m_EditorHideFlags: 0
  m_Script: {fileID: 11500000, guid: 235b2751a91adde448fe02a5cd484527, type: 3}
  m_Name: Rat
  m_EditorClassIdentifier: 
  MonsterName: Rat
  Description: Just a rat. stinks.
  Artwork: {fileID: 21300000, guid: 21d985f3c66a34c438f8aa9135f15295, type: 3}
  ElementType: 0
  Health: 20
  Abilities:
  - {fileID: 11400000, guid: 07c0e20970e058f4d92964c2a6ebb1fd, type: 2}
  - {fileID: 11400000, guid: 2042beb3036fa7c4d8434b6c4b33e65b, type: 2}
  - {fileID: 11400000, guid: 209a07c8b7710e64f91a4566b40f7d31, type: 2}
