%YAML 1.1
%TAG !u! tag:unity3d.com,2011:
--- !u!114 &11400000
MonoBehaviour:
  m_ObjectHideFlags: 0
  m_CorrespondingSourceObject: {fileID: 0}
  m_PrefabInstance: {fileID: 0}
  m_PrefabAsset: {fileID: 0}
  m_GameObject: {fileID: 0}
  m_Enabled: 1
  m_EditorHideFlags: 0
  m_Script: {fileID: 11500000, guid: 00340828243f66a46ae955f38361c089, type: 3}
  m_Name: aoeD6
  m_EditorClassIdentifier: 
  AbilitieName: Despair
  Description: Large aoe damage
  Artwork: {fileID: 21300000, guid: 4680807ab087cd54584ab2b613e36007, type: 3}
  CastTime: 6
  Effects:
  - Target: 7
    InteractionType: 0
    Value: 60
