%YAML 1.1
%TAG !u! tag:unity3d.com,2011:
--- !u!114 &11400000
MonoBehaviour:
  m_ObjectHideFlags: 0
  m_CorrespondingSourceObject: {fileID: 0}
  m_PrefabInstance: {fileID: 0}
  m_PrefabAsset: {fileID: 0}
  m_GameObject: {fileID: 0}
  m_Enabled: 1
  m_EditorHideFlags: 0
  m_Script: {fileID: 11500000, guid: 00340828243f66a46ae955f38361c089, type: 3}
  m_Name: Explode
  m_EditorClassIdentifier: 
  AbilitieName: EXPLOSION
  Description: Wrath explodes in your face, and your enemies, and some random bystanders
  Artwork: {fileID: 21300000, guid: 2fe58171a64e6ad42846d7f5f9235b2e, type: 3}
  CastTime: 1
  Effects:
  - Target: 63
    InteractionType: 0
    Value: 30
