%YAML 1.1
%TAG !u! tag:unity3d.com,2011:
--- !u!114 &11400000
MonoBehaviour:
  m_ObjectHideFlags: 0
  m_CorrespondingSourceObject: {fileID: 0}
  m_PrefabInstance: {fileID: 0}
  m_PrefabAsset: {fileID: 0}
  m_GameObject: {fileID: 0}
  m_Enabled: 1
  m_EditorHideFlags: 0
  m_Script: {fileID: 11500000, guid: a5633e52644da704386526f9ddc66423, type: 3}
  m_Name: Hate2point0
  m_EditorClassIdentifier: 
  TeamName: Hate2poin0
  Description: whatever
  Team:
    Team:
    - {fileID: 11400000, guid: e96233807c4f3ad4faa5760e6e592fa8, type: 2}
