%YAML 1.1
%TAG !u! tag:unity3d.com,2011:
--- !u!114 &11400000
MonoBehaviour:
  m_ObjectHideFlags: 0
  m_CorrespondingSourceObject: {fileID: 0}
  m_PrefabInstance: {fileID: 0}
  m_PrefabAsset: {fileID: 0}
  m_GameObject: {fileID: 0}
  m_Enabled: 1
  m_EditorHideFlags: 0
  m_Script: {fileID: 11500000, guid: a5633e52644da704386526f9ddc66423, type: 3}
  m_Name: TestEnemy1
  m_EditorClassIdentifier: 
  TeamName: TestEnemy
  Description: Testcase
  Team:
    Team:
    - {fileID: 11400000, guid: 5aa8e4ee8eef2354a8235147294002da, type: 2}
