%YAML 1.1
%TAG !u! tag:unity3d.com,2011:
--- !u!114 &11400000
MonoBehaviour:
  m_ObjectHideFlags: 0
  m_CorrespondingSourceObject: {fileID: 0}
  m_PrefabInstance: {fileID: 0}
  m_PrefabAsset: {fileID: 0}
  m_GameObject: {fileID: 0}
  m_Enabled: 1
  m_EditorHideFlags: 0
  m_Script: {fileID: 11500000, guid: 235b2751a91adde448fe02a5cd484527, type: 3}
  m_Name: Sadness
  m_EditorClassIdentifier: 
  MonsterName: Sadness
  Description: Nobody knows what its like
  Artwork: {fileID: 21300000, guid: 88fec7bf9fe80fd46b07810ddfc030fe, type: 3}
  ElementType: 0
  Health: 100
  Abilities:
  - {fileID: 11400000, guid: 9cd35bdc6d07d6e458bcee341b008b71, type: 2}
  - {fileID: 11400000, guid: 9cd35bdc6d07d6e458bcee341b008b71, type: 2}
  - {fileID: 11400000, guid: d51c7914a459ccb4ba8de092b24496eb, type: 2}
  - {fileID: 11400000, guid: 27fde2ca487291e45986c91ce661482a, type: 2}
  - {fileID: 11400000, guid: 3afc90866512a4e48a9009f60671a555, type: 2}
  - {fileID: 11400000, guid: 3afc90866512a4e48a9009f60671a555, type: 2}
  - {fileID: 11400000, guid: d51c7914a459ccb4ba8de092b24496eb, type: 2}
